{
Form dữ liệu:
<Mã hóa đơn>|<Tên khách hàng>|<Số điện thoại khách hàng>|<Email khách hàng>|<Ngày lập>
}
HD0010|Nguyễn Đình Tạo|01675324869|taond@gmail.com|18/03/2016
HD0001|Nguyễn Đình Mạnh|01675032759|nguyendinhmanh@gmail.com|01/01/2016
HD0012|Nguyễn Phúc Long|0985126734|longpl@gmail.com|28/04/2016
HD0011|Lê Tất Tùng|0988245763|tungle@gmail.com|28/04/2016
HD0003|Trần Văn X|01654933621|tranvanx@gmail.com|07/04/2016
HD0014|Nguyễn Đình Kỳ|01622998765|kyocky@gmail.com|03/05/2016
HD0002|Nguyễn Văn A|0985004617|nguyenvana@gmail.com|05/03/2016
HD0013|Nguyễn Đình Mạnh|01675032759|manhnd@gmail.com|25/04/2016
HD0005|Nguyễn Thị Hương|0911395234|huong12@gmail.com|01/05/2016
HD0016|Nguyễn Đình Hùng|0167329843|hungnd@gmail.com|04/05/2016
HD0004|Nguyễn Văn Minh|0123998416|nguyenvanminh@gmail.com|02/05/2016
HD0015|Lê Văn Thuần|0165432987|thanhlv@gmail.com|02/05/2016
HD0007|Nguyễn Văn Ngọc|01283155034|ngocnguyen@gmail.com|02/05/2016
HD0006|Nguyễn Đình Hải|01626221064|dinhhai11@gmail.com|03/05/2016
HD0009|Nguyễn Hữu Tiến|01654234974|tiennh@gmail.com|04/05/2016
HD0008|Trần Minh Hải|0977421546|minhhai@gmail.com|04/05/2016
